…
``` r
names(cohort_iws)
#>  [1] "data"                "fit"                 "fit_summary"        
#>  [4] "terms"               "event_title"         "index_title"        
#>  [7] "followup_time_col"   "followup_time_units" "timeatrisk_col"     
#> [10] "event_status_col"    "patientid_col"       "title"
```

The `.$data` object contains the original data

``` r
cohort_iws$data
#> # A tibble: 250 × 10
#>    patientid sex     age condition lotstartdate lastvisitdate dateofdeath
#>    <chr>     <chr> <dbl> <chr>     <date>       <date>        <date>     
#>  1 F00001    m      41.8 placebo   2016-05-17   2020-12-01    NA         
#>  2 F00002    m      45.3 placebo   2020-07-27   2020-08-25    2020-10-05 
#>  3 F00003    m      52.9 drug      2016-04-14   2017-02-16    2017-03-13 
#>  4 F00004    m      48.4 drug      2020-06-12   2020-11-25    NA         
#>  5 F00005    f      54.4 placebo   2019-03-20   2020-01-13    2020-02-21 
#>  6 F00006    f      50.7 placebo   2017-04-02   2017-10-18    2017-11-19 
#>  7 F00007    f      47.6 placebo   2018-01-26   2019-01-12    2019-02-17 
#>  8 F00008    f      42.7 placebo   2015-07-02   2015-11-20    2015-12-23 
#>  9 F00009    m      48.1 drug      2019-03-08   2020-07-18    2020-08-17 
#> 10 F00010    m      28.9 placebo   2018-08-23   2019-02-14    2019-03-08 
#> # ℹ 240 more rows
#> # ℹ 3 more variables: followup_date <date>, followup_days <dbl>,
#> #   event_status <lgl>
```
…
