Easily Create and Visualize Survival Models • iwillsurvive
…
It’s best to start with one-row-per-patient (ORPP) cohort object that contains columns corresponding to

patientid, a unique patient identifier

index_date, a date corresponding to an index date.

censor_date, date corresponding to when patients were censored

event_date, date corresponding to the event of interest. NA values indicate that the event was not observed.

iwillsurvive provides one such example in ez_cohort, a dataframe of 250 simulated patients:

ez_cohort
#> # A tibble: 250 x 5
#>    patientid condition lotstartdate lastvisitdate dateofdeath
#>    <chr>     <chr>     <date>       <date>        <date>     
#>  1 F00001    placebo   2016-05-17   2020-12-01    NA         
#>  2 F00002    placebo   2020-07-27   2020-08-25    2020-10-05 
#>  3 F00003    drug      2016-04-14   2017-02-16    2017-03-13 
#>  4 F00004    drug      2020-06-12   2020-11-25    NA         
#>  5 F00005    placebo   2019-03-20   2020-01-13    2020-02-21 
#>  6 F00006    placebo   2017-04-02   2017-10-18    2017-11-19 
#>  7 F00007    placebo   2018-01-26   2019-01-12    2019-02-17 
#>  8 F00008    placebo   2015-07-02   2015-11-20    2015-12-23 
#>  9 F00009    drug      2019-03-08   2020-07-18    2020-08-17 
#> 10 F00010    placebo   2018-08-23   2019-02-14    2019-03-08 
#> # … with 240 more rows
…
